<?xml version="1.0" encoding="UTF-8"?>
<svg width="45px" height="37px" viewBox="0 0 45 37" version="1.1" xmlns="http://www.w3.org/2000/svg" xmlns:xlink="http://www.w3.org/1999/xlink">
    <!-- Generator: Sketch 42 (36781) - http://www.bohemiancoding.com/sketch -->
    <title>icon-twitter</title>
    <desc>Created with Sketch.</desc>
    <defs></defs>
    <g id="Milestone-2-Flujo" stroke="none" stroke-width="1" fill="none" fill-rule="evenodd">
        <g id="Social-media" transform="translate(-270.000000, -250.000000)" fill-rule="nonzero" fill="#FFFFFF">
            <g id="icon-twitter" transform="translate(270.000000, 250.000000)">
                <g id="Capa_1">
                    <path d="M44.9123684,4.35989234 C43.2597368,5.09936124 41.4841228,5.59921531 39.6202632,5.82395933 C41.5225439,4.67324163 42.9835965,2.8511244 43.6716667,0.679808612 C41.8910526,1.74546172 39.9192982,2.5191866 37.8203509,2.93610048 C36.1396491,1.1290311 33.7448246,0 31.0945614,0 C26.0058772,0 21.8803509,4.16285407 21.8803509,9.29771053 C21.8803509,10.0264689 21.9618421,10.7361077 22.1189474,11.4167129 C14.4610526,11.0288325 7.67149123,7.32723923 3.12692982,1.70173445 C2.33377193,3.07498325 1.87929825,4.67217943 1.87929825,6.37621531 C1.87929825,9.60211962 3.50596491,12.44811 5.97842105,14.1155 C4.46798246,14.0671699 3.04719298,13.6489282 1.805,12.9524785 C1.80412281,12.9912488 1.80412281,13.0301962 1.80412281,13.0694091 C1.80412281,17.5743804 4.98035088,21.3322703 9.1954386,22.186634 C8.42236842,22.3989856 7.60824561,22.5129952 6.76789474,22.5129952 C6.17412281,22.5129952 5.59692982,22.4545742 5.03421053,22.3458756 C6.20684211,26.0396794 9.60964912,28.7282871 13.6417544,28.8030837 C10.4882456,31.2971316 6.51517544,32.7834163 2.19807018,32.7834163 C1.45429825,32.7834163 0.720877193,32.739512 0,32.6532081 C4.0777193,35.2916268 8.92114035,36.830933 14.1246491,36.830933 C31.0729825,36.830933 40.3411404,22.6627656 40.3411404,10.375756 C40.3411404,9.97265072 40.3320175,9.57166986 40.314386,9.1728134 C42.1149123,7.8619689 43.6771053,6.22440909 44.9123684,4.35989234 Z" id="Shape"></path>
                </g>
            </g>
        </g>
    </g>
</svg>